<svg width="25" height="23" viewBox="0 0 25 23" fill="none" xmlns="http://www.w3.org/2000/svg">
<path d="M16.2315 19.6486C16.2717 19.6554 16.3117 19.6587 16.3511 19.6587C16.6979 19.6587 17.0039 19.4048 17.0628 19.0466L17.7852 14.652C17.8508 14.2531 17.585 13.8757 17.1914 13.8092C16.7978 13.7425 16.4257 14.0122 16.3601 14.4112L15.6377 18.8057C15.5721 19.2048 15.8379 19.5822 16.2315 19.6486Z" fill="#FF612B"/>
<path d="M7.64312 19.0466C7.70202 19.4048 8.00803 19.6587 8.35483 19.6587C8.39427 19.6587 8.43424 19.6555 8.47446 19.6486C8.86802 19.5821 9.13386 19.2048 9.06827 18.8058L8.34587 14.4112C8.28028 14.0122 7.90814 13.7427 7.51453 13.8092C7.12097 13.8757 6.85513 14.253 6.92072 14.652L7.64312 19.0466Z" fill="#FF612B"/>
<path d="M23.9354 7.93984H21.393L15.8308 0.890525C15.5816 0.574754 15.127 0.523435 14.8154 0.776169C14.5039 1.02885 14.4533 1.48974 14.7026 1.80561L19.5428 7.93984H5.11501L9.95526 1.80561C10.2045 1.48974 10.154 1.02881 9.84247 0.776169C9.53088 0.523435 9.07629 0.574705 8.82712 0.890525L3.2648 7.93984H0.722397C0.323441 7.93984 0 8.26777 0 8.67226V11.602C0 12.0064 0.323441 12.3344 0.722397 12.3344H1.62231L4.36222 22.0571C4.45079 22.3715 4.73425 22.5883 5.05678 22.5883H19.601C19.9236 22.5883 20.207 22.3715 20.2957 22.0571L23.0355 12.3344H23.9354C24.3344 12.3344 24.6578 12.0064 24.6578 11.602V8.67226C24.6578 8.26777 24.3344 7.93984 23.9354 7.93984ZM19.0562 21.1234H5.60166L3.1249 12.3344H21.533L19.0562 21.1234ZM23.213 10.8695C20.7383 10.8695 3.78921 10.8695 1.44479 10.8695V9.40469H23.213V10.8695Z" fill="#FF612B"/>
<path d="M12.3289 19.6586C12.7279 19.6586 13.0513 19.3307 13.0513 18.9262V14.5316C13.0513 14.1271 12.7279 13.7992 12.3289 13.7992C11.93 13.7992 11.6065 14.1271 11.6065 14.5316V18.9262C11.6065 19.3307 11.93 19.6586 12.3289 19.6586Z" fill="#FF612B"/>
</svg>
