<svg width="25" height="25" viewBox="0 0 25 25" fill="none" xmlns="http://www.w3.org/2000/svg">
<g clip-path="url(#clip0)">
<path d="M18.0433 5.88128L18.6966 4.94812L21.3842 6.82996C21.4842 6.90003 21.5988 6.93357 21.7123 6.93357C21.8928 6.93357 22.0705 6.84842 22.1819 6.68928C23.5267 4.76878 23.0583 2.11223 21.1377 0.76741C19.2171 -0.577268 16.5607 -0.108859 15.2158 1.81165C15.1287 1.93606 15.0946 2.09002 15.1209 2.23958C15.1473 2.38919 15.232 2.52215 15.3564 2.6093L17.7582 4.29104L17.0445 5.31043C15.8365 4.70725 14.4931 4.33655 13.0731 4.25755V2.63948C13.0731 2.58943 13.066 2.54119 13.0539 2.4949C13.3242 2.31541 13.5026 2.00847 13.5026 1.6597C13.5026 1.10613 13.0539 0.6574 12.5003 0.6574C11.9467 0.6574 11.498 1.10613 11.498 1.6597C11.498 2.00847 11.6764 2.31541 11.9467 2.4949C11.9347 2.54119 11.9276 2.58948 11.9276 2.63948V4.2576C10.5072 4.33655 9.16368 4.70735 7.95553 5.31072L7.24161 4.29119L9.64347 2.6094C9.76788 2.52229 9.85265 2.38929 9.87897 2.23968C9.90538 2.09007 9.87125 1.93611 9.78405 1.81175C8.43937 -0.108811 5.78282 -0.577219 3.86232 0.767508C1.94181 2.11228 1.47335 4.76887 2.81813 6.68938C2.90524 6.8138 3.03825 6.89856 3.18785 6.92488C3.22091 6.93074 3.25416 6.93357 3.28727 6.93357C3.40402 6.93357 3.51881 6.89788 3.61578 6.83001L6.30338 4.94817L6.957 5.88162C4.15211 7.70276 2.29284 10.8626 2.29284 14.4488C2.29284 17.9857 4.10133 21.1078 6.84191 22.9401L6.03063 24.0987C5.84918 24.3578 5.91217 24.7149 6.17125 24.8963C6.27125 24.9664 6.3858 25 6.49928 25C6.6798 25 6.85753 24.9148 6.96891 24.7557L7.83126 23.5241C9.23126 24.2473 10.8189 24.6563 12.5004 24.6563C14.1816 24.6563 15.7691 24.2474 17.169 23.5243L18.0311 24.7557C18.1425 24.9148 18.3202 25 18.5007 25C18.6142 25 18.7288 24.9663 18.8288 24.8963C19.0879 24.7149 19.1509 24.3578 18.9694 24.0987L18.1584 22.9404C20.8992 21.1082 22.7079 17.9859 22.7079 14.4488C22.7078 10.8624 20.8484 7.70242 18.0433 5.88128ZM16.5261 2.02996C17.573 1.00476 19.2377 0.835623 20.4807 1.70584C21.1604 2.18177 21.6141 2.89392 21.7582 3.71111C21.8685 4.33699 21.7872 4.96702 21.5292 5.53318L16.5261 2.02996ZM3.4713 5.53279C2.86598 4.19842 3.27648 2.57615 4.51935 1.70584C5.06051 1.32693 5.68146 1.14505 6.29674 1.14505C7.09464 1.14505 7.88287 1.451 8.47394 2.02986L3.4713 5.53279ZM12.5004 23.5108C7.50353 23.5108 3.43834 19.4456 3.43834 14.4488C3.43834 9.45198 7.50353 5.38679 12.5004 5.38679C17.4972 5.38679 21.5624 9.45198 21.5624 14.4488C21.5624 19.4456 17.4972 23.5108 12.5004 23.5108Z" fill="#FF612B"/>
<path d="M17.601 9.34804C17.3773 9.12431 17.0146 9.12431 16.7911 9.34799L13.219 12.9201C13.0008 12.8171 12.7572 12.7592 12.5004 12.7592C12.2434 12.7592 11.9997 12.8171 11.7815 12.9202L8.21298 9.3517C8.21176 9.35048 8.21078 9.34912 8.20956 9.34794L7.40126 8.53964C7.17758 8.31601 6.81493 8.31601 6.59125 8.53964C6.36761 8.76328 6.36761 9.12597 6.59125 9.34965L7.39642 10.1548C7.39745 10.1559 7.39833 10.157 7.39935 10.1581L10.9717 13.7304C10.8687 13.9485 10.8108 14.192 10.8108 14.4489C10.8108 15.3805 11.5688 16.1385 12.5004 16.1385C13.4321 16.1385 14.19 15.3805 14.19 14.4489C14.19 14.1919 14.1321 13.9483 14.0291 13.7301L17.6011 10.1581C17.8246 9.93437 17.8247 9.57172 17.601 9.34804ZM12.5003 14.9929C12.2003 14.9929 11.9562 14.7488 11.9562 14.4488C11.9562 14.1488 12.2003 13.9047 12.5003 13.9047C12.8003 13.9047 13.0444 14.1488 13.0444 14.4488C13.0444 14.7488 12.8003 14.9929 12.5003 14.9929Z" fill="#FF612B"/>
<path d="M12.5003 6.09201C12.184 6.09201 11.9276 6.34841 11.9276 6.66476V7.80788C11.9276 8.12418 12.184 8.38063 12.5003 8.38063C12.8167 8.38063 13.0731 8.12423 13.0731 7.80788V6.66476C13.073 6.34841 12.8166 6.09201 12.5003 6.09201Z" fill="#FF612B"/>
<path d="M12.5003 20.5169C12.184 20.5169 11.9276 20.7733 11.9276 21.0897V22.2328C11.9276 22.5491 12.184 22.8056 12.5003 22.8056C12.8167 22.8056 13.0731 22.5492 13.0731 22.2328V21.0897C13.073 20.7734 12.8166 20.5169 12.5003 20.5169Z" fill="#FF612B"/>
<path d="M5.85941 13.876H4.71634C4.40003 13.876 4.14359 14.1324 4.14359 14.4488C4.14359 14.7651 4.39998 15.0215 4.71634 15.0215H5.85945C6.17576 15.0215 6.43221 14.7651 6.43221 14.4488C6.43216 14.1325 6.17571 13.876 5.85941 13.876Z" fill="#FF612B"/>
<path d="M20.2843 13.876H19.1413C18.825 13.876 18.5685 14.1324 18.5685 14.4488C18.5685 14.7651 18.8249 15.0215 19.1413 15.0215H20.2843C20.6006 15.0215 20.8571 14.7651 20.8571 14.4488C20.8571 14.1325 20.6007 13.876 20.2843 13.876Z" fill="#FF612B"/>
</g>
<defs>
<clipPath id="clip0">
<rect width="25" height="25" fill="white"/>
</clipPath>
</defs>
</svg>
