<svg width="23" height="25" viewBox="0 0 23 25" fill="none" xmlns="http://www.w3.org/2000/svg">
<path d="M22.3702 6.13353L22.3634 6.10498C21.8143 3.77106 19.3391 1.26664 17.0659 0.745617L17.0403 0.740066C13.3636 0.00253832 9.63565 0.00253832 5.95973 0.740066L5.93333 0.745617C3.66096 1.26664 1.18571 3.77106 0.635901 6.10498L0.629867 6.13353C-0.0489042 9.39293 -0.0489042 12.6983 0.629867 15.9577L0.635901 15.9863C1.16225 18.2206 3.45318 20.6099 5.64146 21.267V23.8723C5.64146 24.8153 6.73428 25.2784 7.35574 24.598L9.86606 21.8541C10.4105 21.8862 10.9553 21.904 11.5 21.904C13.3508 21.904 15.2023 21.72 17.0403 21.3513L17.0659 21.3457C19.3391 20.8247 21.8143 18.3203 22.3634 15.9863L22.3702 15.9578C23.0489 12.6983 23.0489 9.39293 22.3702 6.13353ZM20.3836 15.4851C20.0171 17.0077 18.1376 18.9007 16.6443 19.2504C14.6894 19.6413 12.719 19.8084 10.7506 19.7511C10.7114 19.75 10.6738 19.7659 10.6465 19.7954C10.3671 20.0969 8.81359 21.7739 8.81359 21.7739L6.864 23.8778C6.72146 24.034 6.47107 23.9278 6.47107 23.7121V19.3962C6.47107 19.3249 6.42265 19.2643 6.35606 19.2506L6.35492 19.2503C4.86163 18.9006 2.98294 17.0076 2.61565 15.485C2.00476 12.5388 2.00476 9.55225 2.61565 6.6061C2.98294 5.08347 4.86163 3.19048 6.35492 2.84075C9.76914 2.15794 13.2309 2.15794 16.6443 2.84075C18.1384 3.19048 20.0171 5.08347 20.3836 6.6061C20.9952 9.55233 20.9952 12.5389 20.3836 15.4851Z" fill="#7D3DAF"/>
<path d="M14.7484 17.4773C14.5188 17.404 14.3 17.3547 14.0968 17.2661C11.9914 16.3476 10.0538 15.1626 8.51892 13.3462C7.6461 12.3132 6.96295 11.1471 6.38547 9.91292C6.11162 9.32766 5.88084 8.71948 5.64561 8.11526C5.43112 7.56426 5.74705 6.99501 6.07972 6.57986C6.39188 6.19023 6.79356 5.89205 7.22858 5.6723C7.56811 5.50077 7.90305 5.59966 8.15103 5.90228C8.68711 6.55654 9.17952 7.24426 9.57826 8.00265C9.82344 8.46912 9.75617 9.03931 9.3118 9.35676C9.2038 9.43393 9.10538 9.52449 9.00477 9.61165C8.91653 9.68802 8.83349 9.76518 8.77301 9.86859C8.66244 10.0578 8.65716 10.281 8.72836 10.4867C9.27635 12.0702 10.2 13.3016 11.7158 13.9648C11.9583 14.0709 12.2019 14.1945 12.4814 14.1602C12.9493 14.1027 13.1009 13.563 13.4288 13.281C13.7493 13.0054 14.1589 13.0017 14.5042 13.2315C14.8495 13.4613 15.1843 13.708 15.5171 13.9574C15.8437 14.2021 16.1689 14.4415 16.4702 14.7205C16.7599 14.9888 16.8597 15.3407 16.6965 15.7048C16.3979 16.3716 15.9633 16.9263 15.3364 17.2804C15.1594 17.3803 14.948 17.4126 14.7484 17.4773C14.5188 17.4039 14.948 17.4126 14.7484 17.4773Z" fill="#7D3DAF"/>
<path d="M11.5057 4.90987C14.2597 4.991 16.5216 6.91277 17.0063 9.77565C17.0889 10.2634 17.1183 10.7622 17.155 11.2573C17.1705 11.4655 17.0583 11.6634 16.8446 11.6661C16.6238 11.6689 16.5245 11.4747 16.5102 11.2665C16.4818 10.8544 16.4621 10.4405 16.4081 10.0319C16.123 7.87473 14.4872 6.09008 12.4452 5.70712C12.138 5.64946 11.8235 5.63431 11.5122 5.59998C11.3155 5.57825 11.0578 5.56572 11.0142 5.30853C10.9776 5.09291 11.1507 4.92121 11.3459 4.91019C11.399 4.9071 11.4524 4.90963 11.5057 4.90987C14.2597 4.991 11.4524 4.90963 11.5057 4.90987Z" fill="#7D3DAF"/>
<path d="M15.6909 10.6147C15.6864 10.6509 15.684 10.7359 15.6638 10.816C15.5907 11.1067 15.1716 11.1431 15.075 10.8497C15.0464 10.7626 15.0421 10.6635 15.042 10.5698C15.041 9.95646 14.9142 9.34376 14.6201 8.81012C14.3177 8.26166 13.8558 7.80058 13.314 7.52159C12.9864 7.35291 12.632 7.24807 12.273 7.18558C12.116 7.1583 11.9574 7.14172 11.7997 7.11865C11.6086 7.09073 11.5066 6.96266 11.5156 6.76463C11.5241 6.57906 11.653 6.44559 11.8454 6.45701C12.4774 6.49476 13.0878 6.63838 13.6497 6.95124C14.7923 7.58749 15.445 8.5918 15.6355 9.93283C15.6441 9.99358 15.6579 10.0538 15.6623 10.1148C15.6731 10.2654 15.6799 10.4161 15.6909 10.6147C15.6864 10.6509 15.6799 10.4161 15.6909 10.6147Z" fill="#7D3DAF"/>
<path d="M13.978 10.5446C13.7476 10.5489 13.6243 10.4148 13.6005 10.1927C13.584 10.0378 13.5709 9.88088 13.5358 9.73021C13.4666 9.43345 13.3166 9.15843 13.0791 8.97658C12.9671 8.8907 12.8401 8.82812 12.707 8.78776C12.538 8.73645 12.3625 8.75056 12.1939 8.70711C12.0107 8.65992 11.9095 8.50401 11.9383 8.32335C11.9644 8.15896 12.1166 8.03064 12.2874 8.04365C13.3551 8.1247 14.1182 8.70512 14.2271 10.0268C14.2348 10.1201 14.2438 10.2186 14.2241 10.3079C14.1904 10.4606 14.0829 10.5371 13.978 10.5446C13.7476 10.5489 14.0829 10.5371 13.978 10.5446Z" fill="#7D3DAF"/>
</svg>
