<svg width="25" height="25" viewBox="0 0 25 25" fill="none" xmlns="http://www.w3.org/2000/svg">
<path fill-rule="evenodd" clip-rule="evenodd" d="M25 11.8957C24.8092 5.27991 19.402 0 12.7227 0C6.10687 0 0.763357 5.15267 0.445291 11.6412C0.445291 11.8321 0.445291 12.0229 0.445291 12.1501C0.445291 14.4402 1.08143 16.6031 2.22646 18.4478L0 25L6.80662 22.8372C8.58779 23.7914 10.5598 24.3639 12.7227 24.3639C19.5293 24.3639 25 18.8931 25 12.1501C25 12.1501 25 12.0229 25 11.8957ZM12.7227 22.4555C10.6234 22.4555 8.6514 21.8193 7.06107 20.7379L3.11705 22.0102L4.38931 18.1934C3.18066 16.4758 2.4173 14.4402 2.4173 12.2138C2.4173 11.8957 2.4173 11.5776 2.48091 11.1959C2.98982 5.97965 7.37913 1.97201 12.7863 1.97201C18.1934 1.97201 22.6463 6.17049 23.0916 11.4504C23.0916 11.7048 23.1552 11.9593 23.1552 12.2774C23.028 17.8753 18.3842 22.4555 12.7227 22.4555Z" fill="#57F676"/>
<path fill-rule="evenodd" clip-rule="evenodd" d="M18.3206 14.6947C18.0025 14.5674 16.5394 13.8041 16.285 13.7405C16.0305 13.6132 15.7761 13.6132 15.5852 13.8677C15.3944 14.1858 14.8219 14.8219 14.631 15.0127C14.4402 15.2036 14.2494 15.2672 13.9949 15.0764C13.6768 14.9491 12.7226 14.6311 11.5776 13.6132C10.687 12.8499 10.0509 11.8321 9.92366 11.5776C9.73282 11.2596 9.92366 11.1323 10.0509 10.9415C10.1781 10.8143 10.369 10.5598 10.4962 10.4326C10.5598 10.369 10.5598 10.3054 10.6234 10.3054C10.687 10.1781 10.7506 10.1145 10.8143 9.92368C10.9415 9.73284 10.8779 9.54199 10.8143 9.41476C10.7506 9.28753 10.1145 7.82443 9.86005 7.1883C9.6056 6.61578 9.35114 6.6794 9.16031 6.6794C8.96947 6.6794 8.77863 6.6794 8.58779 6.6794C8.39695 6.6794 8.07888 6.74302 7.76082 7.06108C7.50636 7.37915 6.67939 8.07889 6.67939 9.542C6.67939 9.86006 6.743 10.2417 6.80662 10.5598C7.12468 11.6412 7.76081 12.4682 7.88804 12.659C8.01527 12.8499 9.98728 15.9669 13.0407 17.1756C16.0942 18.3842 16.0942 17.939 16.6667 17.939C17.2392 17.8753 18.4478 17.2392 18.7023 16.5395C18.9567 15.8397 18.9567 15.2672 18.8931 15.14C18.8295 14.8855 18.6387 14.8219 18.3206 14.6947Z" fill="#57F676"/>
</svg>
